%YAML 1.1
%TAG !u! tag:unity3d.com,2011:
--- !u!114 &11400000
MonoBehaviour:
  m_ObjectHideFlags: 0
  m_PrefabParentObject: {fileID: 0}
  m_PrefabInternal: {fileID: 0}
  m_GameObject: {fileID: 0}
  m_Enabled: 1
  m_EditorHideFlags: 0
  m_Script: {fileID: 11500000, guid: ce07a2550ed03a84fbe6b80e57c92918, type: 3}
  m_Name: MonsterDatabase
  m_EditorClassIdentifier: 
  Database:
  - Name: slime
    Class: 9
    Speed: 12
    Attack: 1
    Experience: 100
    Resistances: 
    AC: 5
  - Name: rat
    Class: 17
    Speed: 12
    Attack: 1
    Experience: 100
    Resistances: 
    AC: 5
